id,name,model_id:id,group_id:id,perm_read,perm_write,perm_create,perm_unlink
access_sales_payment_import_wizard_user,sales.payment.import.wizard,model_sales_payment_import_wizard,base.group_user,1,1,1,1
access_sale_shipping_partner_import_wizard_user,sale.shipping.partner.import.wizard,model_sale_shipping_partner_import_wizard,base.group_user,1,1,1,1
